<svg width="24" height="24" viewBox="0 0 24 24" fill="none" xmlns="http://www.w3.org/2000/svg">
<path d="M23 0H1C0.447715 0 0 0.447715 0 1V23C0 23.5523 0.447715 24 1 24H23C23.5523 24 24 23.5523 24 23V1C24 0.447715 23.5523 0 23 0Z" fill="none"/>
<path d="M22.0417 8.625H21.6449C20.6511 5.09833 17.9026 2.34888 14.375 1.35508V0.958333C14.375 0.429333 13.9466 0 13.4167 0H9.58333C9.05338 0 8.625 0.429333 8.625 0.958333V1.35508C5.09737 2.34888 2.34888 5.09833 1.35508 8.625H0.958333C0.428375 8.625 0 9.05433 0 9.58333V13.4167C0 13.9457 0.428375 14.375 0.958333 14.375H1.35508C2.34888 17.9017 5.09737 20.6511 8.625 21.6449V22.0417C8.625 22.5707 9.05338 23 9.58333 23H13.4167C13.9466 23 14.375 22.5707 14.375 22.0417V21.6449C17.9026 20.6511 20.6511 17.9017 21.6449 14.375H22.0417C22.5716 14.375 23 13.9457 23 13.4167V9.58333C23 9.05433 22.5716 8.625 22.0417 8.625ZM11.5 15.3333C9.38592 15.3333 7.66667 13.6141 7.66667 11.5C7.66667 9.38592 9.38592 7.66667 11.5 7.66667C13.6141 7.66667 15.3333 9.38592 15.3333 11.5C15.3333 13.6141 13.6141 15.3333 11.5 15.3333ZM19.6286 8.625H16.4718C15.9677 7.75579 15.2442 7.03225 14.375 6.52817V3.37142C16.835 4.23583 18.7642 6.16496 19.6286 8.625ZM8.625 3.37142V6.52817C7.75579 7.03225 7.03225 7.75579 6.52817 8.625H3.37142C4.23583 6.16496 6.16496 4.23583 8.625 3.37142ZM3.37142 14.375H6.52817C7.03225 15.2442 7.75579 15.9677 8.625 16.4718V19.6286C6.16496 18.7642 4.23583 16.835 3.37142 14.375ZM14.375 19.6286V16.4718C15.2442 15.9677 15.9677 15.2432 16.4718 14.375H19.6286C18.7642 16.835 16.835 18.7642 14.375 19.6286Z" fill="#9BB2BA"/>
</svg>
