<svg width="22" height="22" viewBox="0 0 22 22" fill="none" xmlns="http://www.w3.org/2000/svg">
<path d="M8.50001 19.1258C8.50001 17.5 8.5 18 8.5 19.5L9.70167 20.1825C10.148 20.3101 10.61 20.3749 11.0742 20.375H15.145C16.3845 20.375 17.5799 19.9146 18.4991 19.0831C19.4184 18.2516 19.9961 17.1083 20.12 15.875L20.37 11.625C20.4142 10.7575 20.1559 9.9015 19.6391 9.20328C19.1224 8.50505 18.3793 8.00788 17.5367 7.79667L16.3242 7.53167C16.0532 7.46447 15.8125 7.30849 15.6405 7.08859C15.4684 6.86869 15.375 6.59753 15.375 6.31833V3.5C15.375 3.00272 15.1775 2.52581 14.8258 2.17417C14.4742 1.82254 13.9973 1.625 13.5 1.625C13.0027 1.625 12.5258 1.82254 12.1742 2.17417C11.8226 2.52581 11.625 3.00272 11.625 3.5V4.795C11.625 6.4526 11.8733 6.88014 11.5 8C11 9.5 10.1576 11.045 8.50001 11.045V19.1258Z" fill="#64A319" stroke="#64A319" stroke-width="1.5" stroke-linecap="round" stroke-linejoin="round"/>
<path d="M5.375 9.125H1.625V20.375H5.375V9.125Z" fill="#64A319" stroke="#64A319" stroke-width="1.5" stroke-linecap="round" stroke-linejoin="round"/>
</svg>
