<svg width="20" height="20" viewBox="0 0 20 20" fill="none" xmlns="http://www.w3.org/2000/svg">
<path d="M10 19.375C15.1777 19.375 19.375 15.1777 19.375 10C19.375 4.82233 15.1777 0.625 10 0.625C4.82233 0.625 0.625 4.82233 0.625 10C0.625 15.1777 4.82233 19.375 10 19.375Z" stroke="#4D4D4D" stroke-linecap="round" stroke-linejoin="round"/>
<path d="M7 7.5C7 7.91421 6.66421 8.25 6.25 8.25C5.83579 8.25 5.5 7.91421 5.5 7.5C5.5 7.08579 5.83579 6.75 6.25 6.75C6.66421 6.75 7 7.08579 7 7.5Z" fill="#4D4D4D" stroke="#4D4D4D"/>
<path d="M14.5 7.5C14.5 7.91421 14.1642 8.25 13.75 8.25C13.3358 8.25 13 7.91421 13 7.5C13 7.08579 13.3358 6.75 13.75 6.75C14.1642 6.75 14.5 7.08579 14.5 7.5Z" fill="#4D4D4D" stroke="#4D4D4D"/>
<path d="M13.75 12.25C13.3611 12.8971 12.8114 13.4326 12.1543 13.8044C11.4971 14.1761 10.755 14.3715 10 14.3715C9.24501 14.3715 8.50286 14.1761 7.84574 13.8044C7.18861 13.4326 6.63888 12.8971 6.25 12.25" stroke="#4D4D4D" stroke-linecap="round" stroke-linejoin="round"/>
</svg>
